{
  "video": {
    "autoplay": false,
    "duration": 600,
    "dimensions": {
      "width": 400,
      "height": 600,
      "unit": "px"
    }
  },
  "hotspot": {
    "enable": true,
    "templates": [
      {
        "text": "<span class=\"ivp-hotspot-icon\"></span>",
        "_id": "55f1a905dda55c0900d0eefe",
        "id": 0
      }
    ],
    "items": [
      {
        "enabled": true,
        "actions": [
          {
            "id": 0,
            "type": "card",
            "target": 5
          }
        ],
        "templateId": "55f1a905dda55c0900d0eefe",
        "template": 0,
        "data": {
          "title": "Hotspot1",
          "text": "."
        },
        "time": {
          "start": 3.5,
          "end": 6
        },
        "notification": false,
        "position": {
          "coords": [
            {
              "x": 46.831530139103556,
              "y": 46.15384615384615
            }
          ],
          "unit": "%"
        },
        "animate": {
          "duration": {
            "start": 1,
            "end": 1
          },
          "from": {
            "opacity": 0
          },
          "config": [
            {
              "opacity": 1
            },
            {
              "opacity": 0,
              "scale": 0.5
            }
          ]
        },
        "card": "5609a8b540d7b0090084ea37",
        "$$hashKey": "02W",
        "id": 0,
        "title": "Hotspot1"
      },
      {
        "enabled": true,
        "actions": [
          {
            "id": 0,
            "type": "card",
            "target": 4
          }
        ],
        "templateId": "55f1a905dda55c0900d0eefe",
        "template": 0,
        "data": {
          "title": "Hotspot2",
          "text": "."
        },
        "time": {
          "start": 9,
          "end": 11
        },
        "notification": false,
        "position": {
          "coords": [
            {
              "x": 85.47140649149924,
              "y": 74.72527472527473
            }
          ],
          "unit": "%"
        },
        "animate": {
          "duration": {
            "start": 1,
            "end": 1
          },
          "from": {
            "opacity": 0
          },
          "config": [
            {
              "opacity": 1
            },
            {
              "opacity": 0,
              "scale": 0.5
            }
          ]
        },
        "card": "5609a91440d7b0090084ea3e",
        "$$hashKey": "02X",
        "id": 1,
        "title": "Hotspot2"
      },
      {
        "enabled": true,
        "actions": [
          {
            "id": 0,
            "type": "card",
            "target": 3
          }
        ],
        "templateId": "55f1a905dda55c0900d0eefe",
        "template": 0,
        "data": {
          "title": "Hotspot3",
          "text": "."
        },
        "time": {
          "start": 15,
          "end": 17.5
        },
        "notification": false,
        "position": {
          "coords": [
            {
              "x": 68.6244204018547,
              "y": 68.13186813186813
            }
          ],
          "unit": "%"
        },
        "animate": {
          "duration": {
            "start": 1,
            "end": 1
          },
          "from": {
            "opacity": 0
          },
          "config": [
            {
              "opacity": 1
            },
            {
              "opacity": 0,
              "scale": 0.5
            }
          ]
        },
        "card": "5609a93e40d7b0090084ea45",
        "$$hashKey": "02Y",
        "id": 2,
        "title": "Hotspot3"
      },
      {
        "enabled": true,
        "actions": [
          {
            "id": 0,
            "type": "card",
            "target": 2
          }
        ],
        "templateId": "55f1a905dda55c0900d0eefe",
        "template": 0,
        "data": {
          "title": "Hotspot4",
          "text": "."
        },
        "time": {
          "start": 23,
          "end": 25
        },
        "notification": false,
        "position": {
          "coords": [
            {
              "x": 25.0386398763524,
              "y": 39.010989010989015
            }
          ],
          "unit": "%"
        },
        "animate": {
          "duration": {
            "start": 1,
            "end": 1
          },
          "from": {
            "opacity": 0
          },
          "config": [
            {
              "opacity": 1
            },
            {
              "opacity": 0,
              "scale": 0.5
            }
          ]
        },
        "card": "5609a96840d7b0090084ea4c",
        "$$hashKey": "02Z",
        "id": 3,
        "title": "Hotspot4"
      },
      {
        "enabled": true,
        "actions": [
          {
            "id": 0,
            "type": "card",
            "target": 1
          }
        ],
        "templateId": "55f1a905dda55c0900d0eefe",
        "template": 0,
        "data": {
          "title": "Hotspot5",
          "text": "."
        },
        "time": {
          "start": 27,
          "end": 29
        },
        "notification": false,
        "position": {
          "coords": [
            {
              "x": 94.8400413998927,
              "y": 67.03296703296704
            }
          ],
          "unit": "%"
        },
        "animate": {
          "duration": {
            "start": 1,
            "end": 1
          },
          "from": {
            "opacity": 0
          },
          "config": [
            {
              "opacity": 1
            },
            {
              "opacity": 0,
              "scale": 0.5
            }
          ]
        },
        "card": "5609a98b40d7b0090084ea53",
        "$$hashKey": "030",
        "id": 4,
        "title": "Hotspot5"
      },
      {
        "enabled": true,
        "actions": [
          {
            "id": 0,
            "type": "card",
            "target": 0
          }
        ],
        "templateId": "55f1a905dda55c0900d0eefe",
        "template": 0,
        "data": {
          "title": "Hotspot6",
          "text": "."
        },
        "time": {
          "start": 33,
          "end": 35.5
        },
        "notification": false,
        "position": {
          "coords": [
            {
              "x": 61.360123647604325,
              "y": 67.03296703296702
            }
          ],
          "unit": "%"
        },
        "animate": {
          "duration": {
            "start": 1,
            "end": 1
          },
          "from": {
            "opacity": 0
          },
          "config": [
            {
              "opacity": 1
            },
            {
              "opacity": 0,
              "scale": 0.5
            }
          ]
        },
        "card": "5609a9b040d7b0090084ea5a",
        "$$hashKey": "031",
        "id": 5,
        "title": "Hotspot6"
      }
    ]
  },
  "card": {
    "enabled": true,
    "templates": [
      {
        "text": "<div class=\"ivp-card--medium\"><div class=\"ivp-card-content\"><div class=\"ivp-container\"><div class=\"ivp-row\"><div class=\"ivp-col-12 ivp-col-pull-gutters ivp-card-image\"><img src=\"${image}\"></div></div><div class=\"ivp-row\"><div class=\"ivp-col-12 ivp-card-text\"><h3>${title}</h3><p class=\"ivp-card-price\">${price}</p><div class=\"ivp-card-ctas\"><a class=\"ivp-card-cta ivp-card-cta--primary\" href=\"${ctaprimarylink}\" target=\"_blank\">${ctaprimarytext}</a></div><p>${text}</p></div></div></div></div></div>",
        "_id": "55f1a8bedda55c0900d0eefd",
        "id": 0
      }
    ],
    "items": [
      {
        "_id": "5609a9b040d7b0090084ea5a",
        "title": "Tumi_HotspotDemo_7",
        "template": 0,
        "data": {
          "image": "//ixd.invodo.com/client/trueaction/images/tumi-hotspot-IVP-demo/nora-tote.jpg",
          "title": "Decorative Dangler",
          "price": "",
          "ctaprimarylink": "http://www.tumi.com/p/nora-tote-079364TL",
          "ctaprimarytext": "LEARN MORE",
          "text": "Everyone needs a little flare from time to time. This cute lock and key dangler adds the finishing touches to this beautiful tote."
        },
        "size": "medium",
        "animate": {
          "duration": {
            "start": 0.3,
            "end": 0.3
          },
          "from": {
            "opacity": 0,
            "top": "50%",
            "right": 0
          },
          "config": [
            {
              "y": "-50%",
              "opacity": 1
            },
            {
              "opacity": 0,
              "y": "-54%"
            }
          ]
        },
        "id": 0,
        "position": {
          "x": "0",
          "y": "-54%"
        }
      },
      {
        "_id": "5609a98b40d7b0090084ea53",
        "title": "Tumi_HotspotDemo_6",
        "template": 0,
        "data": {
          "image": "//ixd.invodo.com/client/trueaction/images/tumi-hotspot-IVP-demo/nora-tote.jpg",
          "title": "Leather Carry Handles",
          "price": "",
          "ctaprimarylink": "http://www.tumi.com/p/nora-tote-079364TL",
          "ctaprimarytext": "LEARN MORE",
          "text": "Made from the highest quality reinforced leather, you can rely on these straps to carry the load so you don’t have to."
        },
        "size": "medium",
        "animate": {
          "duration": {
            "start": 0.3,
            "end": 0.3
          },
          "from": {
            "opacity": 0,
            "top": "50%",
            "right": 0
          },
          "config": [
            {
              "y": "-50%",
              "opacity": 1
            },
            {
              "opacity": 0,
              "y": "-54%"
            }
          ]
        },
        "id": 1,
        "position": {
          "x": "0",
          "y": "-54%"
        }
      },
      {
        "_id": "5609a96840d7b0090084ea4c",
        "title": "Tumi_HotspotDemo_5",
        "template": 0,
        "data": {
          "image": "//ixd.invodo.com/client/trueaction/images/tumi-hotspot-IVP-demo/nora-tote.jpg",
          "title": "Jewelry Pocket",
          "price": "",
          "ctaprimarylink": "http://www.tumi.com/p/nora-tote-079364TL",
          "ctaprimarytext": "LEARN MORE",
          "text": "Leave the purse at home when using this tote! This mini jewelry pouch is great for storing more personal items."
        },
        "size": "medium",
        "animate": {
          "duration": {
            "start": 0.3,
            "end": 0.3
          },
          "from": {
            "opacity": 0,
            "top": "50%",
            "right": 0
          },
          "config": [
            {
              "y": "-50%",
              "opacity": 1
            },
            {
              "opacity": 0,
              "y": "-54%"
            }
          ]
        },
        "id": 2,
        "position": {
          "x": "0",
          "y": "-54%"
        }
      },
      {
        "_id": "5609a93e40d7b0090084ea45",
        "title": "Tumi_HotspotDemo_4",
        "template": 0,
        "data": {
          "image": "//ixd.invodo.com/client/trueaction/images/tumi-hotspot-IVP-demo/nora-tote.jpg",
          "title": "Soft, Rich Leather",
          "price": "",
          "ctaprimarylink": "http://www.tumi.com/p/nora-tote-079364TL",
          "ctaprimarytext": "LEARN MORE",
          "text": "Made from the highest quality leather, this tote is the perfect balance of elegance, luxury and durability."
        },
        "size": "medium",
        "animate": {
          "duration": {
            "start": 0.3,
            "end": 0.3
          },
          "from": {
            "opacity": 0,
            "top": "50%",
            "right": 0
          },
          "config": [
            {
              "y": "-50%",
              "opacity": 1
            },
            {
              "opacity": 0,
              "y": "-54%"
            }
          ]
        },
        "id": 3,
        "position": {
          "x": "0",
          "y": "-54%"
        }
      },
      {
        "_id": "5609a91440d7b0090084ea3e",
        "title": "Tumi_HotspotDemo_3",
        "template": 0,
        "data": {
          "image": "//ixd.invodo.com/client/trueaction/images/tumi-hotspot-IVP-demo/nora-tote.jpg",
          "title": "Adjustable Straps",
          "price": "",
          "ctaprimarylink": "http://www.tumi.com/p/nora-tote-079364TL",
          "ctaprimarytext": "LEARN MORE",
          "text": "Whether you like wearing your tote tight or loose, these adjustable shoulder straps can be customized to fit your body."
        },
        "size": "medium",
        "animate": {
          "duration": {
            "start": 0.3,
            "end": 0.3
          },
          "from": {
            "opacity": 0,
            "top": "50%",
            "right": 0
          },
          "config": [
            {
              "y": "-50%",
              "opacity": 1
            },
            {
              "opacity": 0,
              "y": "-54%"
            }
          ]
        },
        "id": 4,
        "position": {
          "x": "0",
          "y": "-54%"
        }
      },
      {
        "_id": "5609a8b540d7b0090084ea37",
        "title": "Tumi_HotspotDemo_2",
        "template": 0,
        "data": {
          "image": "//ixd.invodo.com/client/trueaction/images/tumi-hotspot-IVP-demo/nora-tote.jpg",
          "title": "Padded iPad Pocket",
          "price": "",
          "ctaprimarylink": "http://www.tumi.com/p/nora-tote-079364TL",
          "ctaprimarytext": "LEARN MORE",
          "text": "Designed specifically for iPads, this padded pocket keeps your favorite mobile device safe and secure yet easily accessible."
        },
        "size": "medium",
        "animate": {
          "duration": {
            "start": 0.3,
            "end": 0.3
          },
          "from": {
            "opacity": 0,
            "top": "50%",
            "right": 0
          },
          "config": [
            {
              "y": "-50%",
              "opacity": 1
            },
            {
              "opacity": 0,
              "y": "-54%"
            }
          ]
        },
        "id": 5,
        "position": {
          "x": "0",
          "y": "-54%"
        }
      }
    ]
  },
  "poster": {
    "templates": [
      {
        "id": 1,
        "text": "<div class=\"ivp-btn-big-play\" role=\"button\" aria-live=\"polite\" tabindex=\"0\"><div><span>Play</span></div></div>"
      }
    ],
    "items": [
      {
        "id": 1,
        "enabled": true,
        "template": 1,
        "data": {
          "image": ""
        }
      }
    ]
  }
}